/home/ali/IdeaProjects/spring-boot-soap-example-master/src/main/java/com/techprimers/springbootsoapexample/config/SoapWebServiceConfig.java
/home/ali/IdeaProjects/spring-boot-soap-example-master/src/main/java/com/techprimers/spring_boot_soap_example/User.java
/home/ali/IdeaProjects/spring-boot-soap-example-master/src/main/java/com/techprimers/spring_boot_soap_example/GetUserResponse.java
/home/ali/IdeaProjects/spring-boot-soap-example-master/src/main/java/com/techprimers/springbootsoapexample/SpringBootSoapExampleApplication.java
/home/ali/IdeaProjects/spring-boot-soap-example-master/src/main/java/com/techprimers/spring_boot_soap_example/package-info.java
/home/ali/IdeaProjects/spring-boot-soap-example-master/src/main/java/com/techprimers/spring_boot_soap_example/GetUserRequest.java
/home/ali/IdeaProjects/spring-boot-soap-example-master/src/main/java/com/techprimers/springbootsoapexample/service/UserService.java
/home/ali/IdeaProjects/spring-boot-soap-example-master/src/main/java/com/techprimers/spring_boot_soap_example/ObjectFactory.java
/home/ali/IdeaProjects/spring-boot-soap-example-master/src/main/java/com/techprimers/springbootsoapexample/endpoint/UserEndpoint.java
